{ "prefix":
   { "prov": "http://www.w3.org/ns/prov#",
     "xsd": "http://www.w3.org/2001/XMLSchema",
     "ex": "http://www.example.org#" },
  "entity":
   { "ex:dataset1": { "ex:cost": "0.001" },
     "ex:dataset2": { "ex:cost": "0.002" },
     "ex:hybridDataProduct": { "ex:cost": "0.003" } },
  "activity": { "ex:createHybridDataProduct": {} },
  "wasDerivedFrom":
   { "_:id1":
      { "prov:generatedEntity": "ex:hybridDataProduct",
        "prov:usedEntity": "ex:dataset1" },
     "_:id2":
      { "prov:generatedEntity": "ex:hybridDataProduct",
        "prov:usedEntity": "ex:dataset2" } },
  "used":
   { "_:id3":
      { "prov:activity": "ex:createHybridDataProduct",
        "prov:entity": "ex:dataset1" },
     "_:id4":
      { "prov:activity": "ex:createHybridDataProduct",
        "prov:entity": "ex:dataset2" } },
  "wasGeneratedBy":
   { "_:id5":
      { "prov:entity": "ex:hybridDataProduct",
        "prov:activity": "ex:createHybridDataProduct" } } }
